Summarizing Data
…
Data

# A tibble: 1,000 × 2
   is_canceled lead_time
   <fct>           <dbl>
 1 1                   1
 2 1                  19
 3 0                   9
 4 0                 110
 5 0                 329
 6 0                 212
 7 0                  14
 8 0                  58
 9 1                  88
10 1                 373
# ℹ 990 more rows
…
