Multiple Linear Regression, Transformations, and Model Evaluation
…
# A tibble: 3 × 5
  term        estimate std.error statistic  p.value
  <chr>          <dbl>     <dbl>     <dbl>    <dbl>
1 (Intercept)   -0.932    8.15      -0.114 9.09e- 1
2 gestation      0.443    0.0290    15.3   3.16e-48
3 smoke         -8.09     0.953     -8.49  5.96e-17

Expected birth weight for a baby who had 280 days of gestation with a smoker mother

\(\hat {\text{bwt}_i} = b_0 + b_1 \text{ gestation}_i + b_2 \text{ smoke}_i\)

\(\hat {\text{bwt}_i} = -0.932 + (0.443 \times 280) + (-8.09 \times 1)\)

# A tibble: 1,236 × 4
     bwt gestation smoke  pred
   <int>     <int> <int> <dbl>
 1   120       284     0  125.
 2   113       282     0  124.
 3   128       279     1  115.
 4   123        NA     0   NA 
 5   108       282     1  116.
 6   136       286     0  126.
 7   138       244     0  107.
 8   132       245     0  108.
 9   120       289     0  127.
10   143       299     1  123.
# ℹ 1,226 more rows

# A tibble: 1,236 × 5
     bwt gestation smoke  pred  resid
   <int>     <int> <int> <dbl>  <dbl>
 1   120       284     0  125.  -4.84
 2   113       282     0  124. -11.0 
 3   128       279     1  115.  13.5 
 4   123        NA     0   NA   NA   
 5   108       282     1  116.  -7.87
 6   136       286     0  126.  10.3 
 7   138       244     0  107.  30.9 
 8   132       245     0  108.  24.4 
 9   120       289     0  127.  -7.05
10   143       299     1  123.  19.6 
# ℹ 1,226 more rows
…
# A tibble: 1 × 12
  r.squared adj.r.squared sigma statistic  p.value    df logLik    AIC    BIC
      <dbl>         <dbl> <dbl>     <dbl>    <dbl> <dbl>  <dbl>  <dbl>  <dbl>
1     0.166         0.166  16.7      244. 3.22e-50     1 -5175. 10356. 10371.
# ℹ 3 more variables: deviance <dbl>, df.residual <int>, nobs <int>

# A tibble: 1 × 12
  r.squared adj.r.squared sigma statistic  p.value    df logLik    AIC    BIC
      <dbl>         <dbl> <dbl>     <dbl>    <dbl> <dbl>  <dbl>  <dbl>  <dbl>
1     0.212         0.210  16.2      108. 3.45e-62     3 -5089. 10187. 10213.
# ℹ 3 more variables: deviance <dbl>, df.residual <int>, nobs <int>

When comparing models with multiple predictors we rely on Adjusted R-squared.

# A tibble: 1,236 × 3
     bwt  pred  resid
   <int> <dbl>  <dbl>
 1   120  122.  -1.79
 2   113  121.  -7.86
 3   128  119.   8.53
 4   123   NA   NA   
 5   108  121. -12.9 
 6   136  123.  13.3 
 7   138  103.  34.8 
 8   132  104.  28.3 
 9   120  124.  -4.11
10   143  129.  14.2 
# ℹ 1,226 more rows

# A tibble: 1,236 × 3
     bwt  pred  resid
   <int> <dbl>  <dbl>
 1   120  125.  -4.80
 2   113  125. -11.5 
 3   128  115.  13.3 
 4   123   NA   NA   
 5   108  115.  -7.47
 6   136  125.  10.5 
 7   138  108.  30.4 
 8   132  107.  25.0 
 9   120  127.  -6.81
10   143  124.  19.2 
# ℹ 1,226 more rows
…
